…
Next Steps:
Re-run the updated code to check the range of wti_price.
If issues persist, investigate the root cause of NA values and address them appropriately.
Let me know if further assistance is needed!

User: 

Got this error, how to fix: 


Test 5 Failed: Duplicate dates found in the dataset.
# A tibble: 151 × 3
# Groups:   date [1]
   date   wti_price election_phase
   <date>     <dbl> <chr>         
 1 NA            NA Liberal       
 2 NA            NA Liberal       
 3 NA            NA Liberal       
 4 NA            NA Liberal       
 5 NA            NA Liberal       
 6 NA            NA Labor         
 7 NA            NA Liberal       
 8 NA            NA Labor         
 9 NA            NA Greens        
10 NA            NA Labor         
# ℹ 141 more rows
# ℹ Use `print(n = ...)` to see more rows
> 
> # Test 6: Verify election phase labels
> valid_phases <- all(data$election_phase %in% c("pre-election", "post-election"))
> if (valid_phases) {
+   message("Test 6 Passed: All rows have valid election phase labels.")
+ } else {
+   message("Test 6 Failed: Invalid election phase labels found.")
+   print(data %>% filter(!election_phase %in% c("pre-election", "post-election")))
+ }
Test 6 Failed: Invalid election phase labels found.
# A tibble: 151 × 3
   date   wti_price election_phase
   <date>     <dbl> <chr>         
 1 NA            NA Liberal       
 2 NA            NA Liberal       
 3 NA            NA Liberal       
 4 NA            NA Liberal       
 5 NA            NA Liberal       
 6 NA            NA Labor         
 7 NA            NA Liberal       
 8 NA            NA Labor         
 9 NA            NA Greens        
10 NA            NA Labor         
# ℹ 141 more rows
# ℹ Use `print(n = ...)` to see more rows
…
